ID;Area;Quartos;Idade do predio;Bairro;Preco
1001;131;2;3;Los Condes;
1002;133;2;5;Los Condes;
1003;156;4;4;Ville Haute;
1004;47;1;4;Ipanema;
1005;100;1;1;Los Condes;
1006;123;2;9;Ville Haute;
1007;111;3;4;Los Condes;
1008;174;3;7;Los Condes;
1009;73;2;1;Los Condes;
1010;86;1;1;Los Condes;
1011;82;2;1;Ipanema;
1012;125;3;4;Central Park;
1013;198;3;13;Ville Haute;
1014;39;0;3;Ville Haute;
1015;168;3;12;Ipanema;
1016;107;3;4;Central Park;
1017;190;3;6;Ville Haute;
1018;41;1;5;Central Park;
1019;200;3;4;Los Condes;
1020;39;0;5;Los Condes;
1021;156;3;14;Central Park;
1022;134;2;7;Los Condes;
1023;144;3;8;Ipanema;
1024;195;4;10;Los Condes;
1025;171;3;9;Ville Haute;
1026;146;3;4;Los Condes;
1027;72;1;1;Los Condes;
1028;110;3;3;Central Park;
1029;33;0;5;Los Condes;
1030;32;0;3;Central Park;
1031;43;0;3;Los Condes;
1032;66;1;1;Ville Haute;
1033;46;1;5;Los Condes;
1034;136;2;3;Ville Haute;
1035;160;4;14;Central Park;
1036;175;3;13;Ville Haute;
1037;163;3;5;Ville Haute;
1038;51;2;3;Ipanema;
1039;152;3;7;Ville Haute;
1040;143;3;3;Ville Haute;
1041;159;3;8;Central Park;
1042;175;3;6;Los Condes;
1043;74;1;1;Ville Haute;
1044;83;1;1;Los Condes;
1045;84;1;1;Los Condes;
1046;141;3;9;Los Condes;
1047;135;3;9;Los Condes;
1048;122;2;4;Ipanema;
1049;100;2;1;Ipanema;
1050;163;3;8;Los Condes;
1051;139;2;4;Ipanema;
1052;162;3;7;Central Park;
1053;66;2;1;Central Park;
1054;95;2;1;Los Condes;
1055;74;1;1;Central Park;
1056;35;1;4;Ville Haute;
1057;100;2;1;Central Park;
1058;122;2;6;Central Park;
1059;49;1;4;Central Park;
1060;61;1;1;Los Condes;
1061;101;3;3;Los Condes;
1062;113;3;4;Los Condes;
1063;56;2;5;Los Condes;
1064;114;3;9;Ville Haute;
1065;34;1;5;Los Condes;
1066;153;4;11;Ipanema;
1067;107;2;7;Los Condes;
1068;159;3;7;Ville Haute;
1069;77;2;1;Ipanema;
1070;68;1;1;Los Condes;
1071;33;1;5;Central Park;
1072;33;0;3;Los Condes;
1073;149;2;4;Los Condes;
1074;197;3;4;Ville Haute;
1075;163;4;9;Ipanema;
1076;106;3;7;Los Condes;
1077;131;3;5;Los Condes;
1078;155;3;11;Ville Haute;
1079;36;0;5;Central Park;
1080;108;2;4;Los Condes;
1081;130;3;6;Los Condes;
1082;177;3;13;Ville Haute;
1083;197;4;5;Central Park;
1084;93;2;1;Los Condes;
1085;132;2;8;Los Condes;
1086;49;0;3;Ville Haute;
1087;77;1;1;Los Condes;
1088;43;1;4;Los Condes;
1089;35;1;3;Ipanema;
1090;45;1;5;Los Condes;
1091;56;2;5;Los Condes;
1092;54;1;5;Ipanema;
1093;44;1;5;Los Condes;
1094;114;2;6;Ville Haute;
1095;120;2;7;Los Condes;
1096;165;3;9;Los Condes;
1097;146;3;5;Central Park;
1098;102;2;9;Los Condes;
1099;106;3;8;Ville Haute;
1100;106;2;3;Los Condes;
1101;173;4;9;Central Park;
1102;51;2;3;Central Park;
1103;61;1;1;Los Condes;
1104;189;4;13;Los Condes;
1105;159;3;14;Los Condes;
1106;132;3;8;Los Condes;
1107;187;4;11;Central Park;
1108;35;0;3;Ipanema;
1109;88;1;1;Los Condes;
1110;118;2;3;Los Condes;
1111;70;2;1;Los Condes;
1112;96;2;1;Los Condes;
1113;174;4;12;Ville Haute;
1114;99;1;1;Ipanema;
1115;164;3;9;Ville Haute;
1116;72;1;1;Los Condes;
1117;133;3;9;Ipanema;
1118;171;4;9;Ipanema;
1119;126;3;4;Los Condes;
1120;186;3;11;Los Condes;
1121;171;4;13;Ville Haute;
1122;74;1;1;Los Condes;
1123;97;1;1;Los Condes;
1124;148;2;8;Central Park;
1125;43;1;4;Ville Haute;
1126;153;4;11;Ville Haute;
1127;182;4;5;Central Park;
1128;123;3;9;Ipanema;
1129;124;3;4;Los Condes;
1130;133;2;6;Los Condes;
1131;44;0;4;Los Condes;
1132;65;1;1;Los Condes;
1133;109;2;7;Ville Haute;
1134;70;2;1;Central Park;
1135;180;3;7;Ipanema;
1136;181;3;14;Ville Haute;
1137;147;2;6;Los Condes;
1138;172;3;7;Los Condes;
1139;175;4;8;Central Park;
1140;99;1;1;Los Condes;
1141;177;3;12;Ipanema;
1142;138;3;3;Los Condes;
1143;136;3;5;Ipanema;
1144;37;1;5;Ville Haute;
1145;170;4;5;Ville Haute;
1146;125;3;7;Los Condes;
1147;117;2;9;Los Condes;
1148;74;2;1;Central Park;
1149;173;4;14;Ville Haute;
1150;64;1;1;Los Condes;
1151;164;4;6;Los Condes;
1152;125;3;8;Los Condes;
1153;103;3;8;Los Condes;
1154;57;2;5;Los Condes;
1155;39;0;3;Los Condes;
1156;58;1;3;Los Condes;
1157;60;1;3;Central Park;
1158;130;2;6;Ville Haute;
1159;88;2;1;Central Park;
1160;45;1;3;Central Park;
1161;86;2;1;Los Condes;
1162;100;1;1;Los Condes;
1163;113;2;6;Los Condes;
1164;42;0;5;Central Park;
1165;82;2;1;Ipanema;
1166;125;2;7;Central Park;
1167;137;3;8;Ville Haute;
1168;113;2;4;Los Condes;
1169;31;0;4;Los Condes;
1170;46;0;4;Los Condes;
1171;84;1;1;Los Condes;
1172;187;3;5;Ipanema;
1173;115;2;8;Central Park;
1174;158;3;7;Ville Haute;
1175;195;4;4;Los Condes;
1176;98;2;1;Los Condes;
1177;191;3;14;Los Condes;
1178;60;1;5;Ipanema;
1179;137;2;5;Central Park;
1180;75;2;1;Ville Haute;
1181;139;2;5;Central Park;
1182;89;1;1;Ipanema;
1183;145;3;4;Central Park;
1184;187;3;5;Los Condes;
1185;101;3;3;Los Condes;
1186;98;2;1;Los Condes;
1187;106;3;2;Los Condes;
1188;112;2;7;Central Park;
1189;183;3;10;Los Condes;
1190;33;1;3;Los Condes;
1191;105;3;3;Los Condes;
1192;166;3;10;Los Condes;
1193;63;1;1;Central Park;
1194;51;1;5;Los Condes;
1195;183;3;7;Los Condes;
1196;133;3;7;Los Condes;
1197;60;2;3;Ipanema;
1198;102;3;8;Ville Haute;
1199;39;1;5;Ville Haute;
1200;65;2;1;Ipanema;
